{
    "metadata": {
        "datasets": [
            "public-global-fishing-events:v3.0"
        ],
        "dateRange": {
            "from": "2017-01-01",
            "to": "2017-01-31"
        }
    },
    "limit": 1,
    "offset": 0,
    "nextOffset": 1,
    "total": 240631,
    "entries": [
        {
            "start": "2016-12-17T20:57:49.000Z",
            "end": "2017-01-04T17:27:01.000Z",
            "id": "3ca9b73aee21fbf278a636709e0f8f03",
            "type": "fishing",
            "position": {
                "lat": 54.9204,
                "lon": -5.5465
            },
            "regions": {
                "mpa": [
                    "555786438",
                    "555557202",
                    "555786428",
                    "555624876"
                ],
                "eez": [
                    "5696"
                ],
                "rfmo": [
                    "IWC",
                    "ICCAT",
                    "NASCO",
                    "ACAP",
                    "NEAFC",
                    "NAMMCO",
                    "ICES"
                ],
                "fao": [
                    "27",
                    "27.6.a",
                    "27.6",
                    "27.7",
                    "27.7.a"
                ],
                "majorFao": [
                    "27"
                ],
                "eez12Nm": [
                    "5696"
                ],
                "highSeas": [],
                "mpaNoTakePartial": [],
                "mpaNoTake": []
            },
            "boundingBox": [
                -5.3292866667,
                54.775575,
                -5.943021666699991,
                55.0624116667
            ],
            "distances": {
                "startDistanceFromShoreKm": 14,
                "endDistanceFromShoreKm": 2,
                "startDistanceFromPortKm": 15.019969999999999,
                "endDistanceFromPortKm": 7.348033999999999
            },
            "vessel": {
                "id": "126570026-6217-2a10-f383-a42f66f78ea7",
                "name": "NORTHERN VIKING",
                "ssvid": "235063795",
                "flag": "GBR",
                "type": "fishing",
                "publicAuthorizations": [
                    {
                        "hasPubliclyListedAuthorization": "false",
                        "rfmo": "ICCAT"
                    }
                ]
            },
            "fishing": {
                "totalDistanceKm": 1442.4600248679274,
                "averageSpeedKnots": 1.8645614012351117,
                "averageDurationHours": null,
                "potentialRisk": false,
                "vesselPublicAuthorizationStatus": "not_matching_relevant_public_authorization"
            }
        }
    ]
}